<svg xmlns="http://www.w3.org/2000/svg" viewBox="0 0 98.03 94.02">
  <defs>
    <style>
      .cls-3{stroke-linecap:round;stroke-width:5.65px;stroke-miterlimit:10;fill:#fff;stroke:#135f84}
    </style>
  </defs>
  <g id="Layer_3" data-name="Layer 3">
    <path fill="#135f84" stroke="#fff" stroke-linecap="round" stroke-miterlimit="10" stroke-width="5.65" d="M71.41 91.2H5.79a3 3 0 0 1-3-3V14.71a3 3 0 0 1 3-3h86.46a3 3 0 0 1 3 3v65"/>
    <path fill="none" stroke="#fff" stroke-miterlimit="10" stroke-width="17.52" d="M4.67 25.6h88.69"/>
    <rect width="13.62" height="18.37" x="11.57" y="2.83" class="cls-3" rx=".5" ry=".5"/>
    <rect width="13.62" height="18.37" x="42.2" y="2.83" class="cls-3" rx=".5" ry=".5"/>
    <rect width="13.62" height="18.37" x="72.84" y="2.83" class="cls-3" rx=".5" ry=".5"/>
    <path fill="#fff" d="M53.5 77a4.5 4.5 0 0 1 0 6.32 5 5 0 0 1-3.5 1.16 5 5 0 0 1-3.5-1.19 4.49 4.49 0 0 1 0-6.32A5 5 0 0 1 50 75.8a5 5 0 0 1 3.5 1.2zm.56-18.53l-1 11.06H46.9l-1-11.06V45.64h8.12z" transform="translate(-.98 -2.99)"/>
    <path fill="#fff" stroke="#fff" stroke-linejoin="round" stroke-width="5.7" d="M95.03 79.99L71.97 91.17l6.22-16.75 16.84 5.57z"/>
  </g>
</svg>
