<?xml version="1.0" encoding="utf-8"?>
<!-- Generator: Adobe Illustrator 23.0.0, SVG Export Plug-In . SVG Version: 6.00 Build 0)  -->
<svg version="1.1" id="Layer_1" xmlns="http://www.w3.org/2000/svg" xmlns:xlink="http://www.w3.org/1999/xlink" x="0px" y="0px"
	 viewBox="0 0 227 227" style="enable-background:new 0 0 227 227;" xml:space="preserve">
<style type="text/css">
	.st0{fill:#002D5B;}
	.st1{display:none;}
	.st2{display:inline;}
	.st3{fill:#FFFFFF;}
</style>
<g>
	<rect class="st0" width="227" height="227"/>
</g>
<g>
	<g class="st1">
		<g class="st2">
			<path class="st3" d="M173.1,124.2h-48.2v50.6h-22.5v-50.6H53.9v-21.5h48.4V52.2h22.5v50.4H173v21.6
				C173,124.2,173.1,124.2,173.1,124.2z"/>
		</g>
	</g>
	<g id="Layer_3">
		<g>
			<path class="st3" d="M173,124.7H54v-22.5h119V124.7z"/>
		</g>
	</g>
</g>
</svg>
