<svg xmlns="http://www.w3.org/2000/svg" viewBox="0 0 216 216"><style type="text/css">  
	.st0{display:none;}
	.st1{display:inline;fill:#0F78CE;}
	.st2{display:inline;}
	.st3{fill:none;stroke:#FFFFFF;stroke-width:2;stroke-linecap:round;stroke-linejoin:round;stroke-miterlimit:10;}
	.st4{fill:none;stroke:#FFFFFF;stroke-linecap:round;stroke-linejoin:round;stroke-miterlimit:10;}
	.st5{fill:#FFFFFF;}
	.st6{fill:none;stroke:#FFFFFF;stroke-width:4;stroke-miterlimit:10;}
	.st7{fill:none;stroke:#FFFFFF;stroke-width:2;stroke-miterlimit:10;}
	.st8{fill:none;stroke:#FFFFFF;stroke-miterlimit:10;}
</style><g class="st0"><rect x="-5.1" y="-6.2" class="st1" width="235.8" height="241.1"/></g><g class="st0"><g class="st2"><polygon class="st3" points="61.5 85.1 107.8 56.4 154.1 85.1 "/><polygon class="st3" points="154.1 90.9 61.5 90.9 57.8 85.1 157.8 85.1 "/><polyline class="st3" points="81.7 90.9 81.7 99.7 61.5 99.7 61.5 90.9 "/><line class="st3" x1="81.7" y1="105.5" x2="61.5" y2="105.5"/><line class="st3" x1="144" y1="131.4" x2="71.6" y2="131.4"/><line class="st4" x1="152.2" y1="45.8" x2="127.6" y2="45.8"/><line class="st4" x1="157.7" y1="51.1" x2="133.8" y2="51.1"/><line class="st4" x1="161.8" y1="56.4" x2="140.7" y2="56.4"/><line class="st4" x1="56" y1="54" x2="80.9" y2="54"/><line class="st4" x1="52.3" y1="59.3" x2="74.7" y2="59.3"/><line class="st4" x1="49.5" y1="64.6" x2="68.1" y2="64.6"/><line class="st3" x1="170.2" y1="114.2" x2="150.5" y2="114.2"/><line class="st3" x1="65.1" y1="114.2" x2="45.8" y2="114.2"/><line class="st3" x1="106" y1="105.5" x2="85.7" y2="105.5"/><line class="st3" x1="130.1" y1="105.5" x2="109.8" y2="105.5"/><line class="st3" x1="154.1" y1="105.5" x2="133.9" y2="105.5"/><line class="st3" x1="65.1" y1="143.1" x2="65.1" y2="99.7"/><line class="st3" x1="78.1" y1="99.7" x2="78.1" y2="117.9"/><line class="st3" x1="89.3" y1="117.9" x2="89.3" y2="99.7"/><line class="st3" x1="102.4" y1="99.7" x2="102.4" y2="111.9"/><line class="st3" x1="113.4" y1="112" x2="113.4" y2="99.7"/><line class="st3" x1="126.5" y1="99.7" x2="126.5" y2="117.9"/><line class="st3" x1="137.5" y1="117.9" x2="137.5" y2="99.7"/><line class="st3" x1="150.5" y1="99.7" x2="150.5" y2="143.5"/><polyline class="st3" points="106 90.9 106 99.7 85.7 99.7 85.7 90.9 "/><polyline class="st3" points="144 148.1 144 117.9 71.7 117.9 71.7 148.1 "/><polyline class="st3" points="130.1 90.9 130.1 99.7 109.8 99.7 109.8 90.9 "/><polyline class="st3" points="154.1 90.9 154.1 99.7 133.9 99.7 133.9 90.9 "/><polyline class="st3" points="113.6 131.4 115.8 137.6 107.7 145.1 99.8 137.7 102.1 131.4 "/><polyline class="st3" points="111.1 142 119.9 177.1 107.7 187.7 95.7 177.3 104.4 142 "/><path class="st3" d="M98.5 117.8c0-4 3.9-7.2 9.3-7.2 5.6 0 9.3 3.2 9.3 7.2"/><path class="st3" d="M100.3 158.7c-32.5-3.8-57.7-31.5-57.7-65 0-36.1 29.3-65.4 65.4-65.4s65.4 29.3 65.4 65.4c0 33.7-25.4 61.4-58.2 65"/></g></g><g class="st0"><g class="st2"><line class="st4" x1="169.8" y1="72.4" x2="145.2" y2="72.4"/><line class="st4" x1="171.4" y1="77.7" x2="151.6" y2="77.7"/><line class="st4" x1="172.5" y1="83" x2="158.4" y2="83"/><line class="st4" x1="42.9" y1="87.5" x2="67.7" y2="87.5"/><line class="st4" x1="42.6" y1="92.7" x2="61.1" y2="92.7"/><line class="st4" x1="42.7" y1="98" x2="54.3" y2="98"/><line class="st3" x1="143.6" y1="115.1" x2="143.6" y2="134.6"/><polygon class="st3" points="156.3 125.2 108 86.8 59.6 125.2 59.6 116.1 108 77.7 156.3 116.1 "/><line class="st3" x1="72.3" y1="134.5" x2="72.3" y2="115.1"/><line class="st3" x1="127.2" y1="61.3" x2="127.2" y2="92.9"/><polygon class="st3" points="134 66.7 108 46.1 81.9 66.7 81.9 58.3 108 37.7 134 58.3 "/><line class="st3" x1="88.8" y1="92.9" x2="88.8" y2="61.3"/><polyline class="st4" points="111.5 67.2 108 66.7 106.5 69.4 "/><line class="st4" x1="88.8" y1="117.5" x2="88.8" y2="108.1"/><line class="st4" x1="84.9" y1="117.5" x2="84.9" y2="111.9"/><line class="st4" x1="131" y1="117.5" x2="131" y2="111.9"/><line class="st4" x1="107.8" y1="103.5" x2="107.8" y2="94.8"/><line class="st4" x1="127.3" y1="117.5" x2="127.3" y2="108.1"/><path class="st3" d="M67.4 145c-15.1-12-24.8-30.5-24.8-51.3 0-36.2 29.3-65.5 65.4-65.5s65.4 29.3 65.4 65.5c0 20.8-9.6 39.3-24.7 51.3"/><polyline class="st3" points="108.2 187.8 148.7 175.1 148.7 133 108.3 145.7 "/><polyline class="st3" points="108 187.8 67.4 175.1 67.4 133 108.3 145.7 "/><path class="st3" d="M108 179.3c0 0 7.5 5.1 14.7-2.8s8.1-22.7-0.2-27.4c-5.1-2.9-12-0.1-14.5 2.4"/><path class="st4" d="M119.2 171.5c4.2-4.6 4.7-13.3-0.1-16"/><path class="st4" d="M115.6 167.8c2.3-2.5 2.6-7.2-0.1-8.7"/><path class="st3" d="M108 179.3c0 0-7.5 5.1-14.7-2.8 -7.3-7.9-8.1-22.7 0.2-27.4 5.1-2.9 12-0.1 14.5 2.4 1.5-8.1-3.2-13.2-3.2-13.2"/><line class="st3" x1="108" y1="179.3" x2="108" y2="187.8"/><line class="st3" x1="76.9" y1="167.7" x2="90" y2="171.7"/><line class="st3" x1="76.9" y1="157.8" x2="87.6" y2="161"/><line class="st3" x1="76.9" y1="147.9" x2="90.4" y2="151.9"/><line class="st3" x1="139.1" y1="167.7" x2="126" y2="171.7"/><line class="st3" x1="139.1" y1="157.8" x2="128.5" y2="161"/><line class="st3" x1="139.1" y1="147.9" x2="125.7" y2="151.9"/><polyline class="st3" points="118 142.2 118.3 112.2 97.6 112.2 97.2 142.2 "/></g></g><g class="st0"><g class="st2"><circle class="st3" cx="108" cy="93.6" r="65.4"/><rect x="73.9" y="60.6" class="st3" width="68.2" height="17.2"/><polyline class="st3" points="142.1 60.6 128.8 46.1 87.2 46.1 73.9 60.6 "/><rect x="80.4" y="65.5" class="st3" width="9.4" height="7.3"/><rect x="95.9" y="65.5" class="st3" width="9.4" height="7.3"/><line class="st3" x1="116.4" y1="65.5" x2="122.7" y2="65.5"/><line class="st3" x1="116.4" y1="69.2" x2="122.7" y2="69.2"/><line class="st3" x1="116.4" y1="72.8" x2="122.7" y2="72.8"/><line class="st3" x1="129.3" y1="65.5" x2="135.6" y2="65.5"/><line class="st3" x1="129.3" y1="69.2" x2="135.6" y2="69.2"/><line class="st3" x1="129.3" y1="72.8" x2="135.6" y2="72.8"/><rect x="73.9" y="88.1" class="st3" width="68.2" height="17.2"/><line class="st3" x1="83.3" y1="77.8" x2="73.9" y2="88.1"/><line class="st3" x1="142.1" y1="88.1" x2="132.7" y2="77.8"/><rect x="80.4" y="93" class="st3" width="9.4" height="7.3"/><rect x="95.9" y="93" class="st3" width="9.4" height="7.3"/><line class="st3" x1="116.4" y1="93" x2="122.7" y2="93"/><line class="st3" x1="116.4" y1="96.7" x2="122.7" y2="96.7"/><line class="st3" x1="116.4" y1="100.3" x2="122.7" y2="100.3"/><line class="st3" x1="129.3" y1="93" x2="135.6" y2="93"/><line class="st3" x1="129.3" y1="96.7" x2="135.6" y2="96.7"/><line class="st3" x1="129.3" y1="100.3" x2="135.6" y2="100.3"/><rect x="73.9" y="115.6" class="st3" width="68.2" height="17.2"/><line class="st3" x1="83.3" y1="105.3" x2="73.9" y2="115.6"/><line class="st3" x1="142.1" y1="115.6" x2="132.7" y2="105.3"/><rect x="80.4" y="120.5" class="st3" width="9.4" height="7.3"/><rect x="95.9" y="120.5" class="st3" width="9.4" height="7.3"/><line class="st3" x1="116.4" y1="120.5" x2="122.7" y2="120.5"/><line class="st3" x1="116.4" y1="124.2" x2="122.7" y2="124.2"/><line class="st3" x1="116.4" y1="127.8" x2="122.7" y2="127.8"/><line class="st3" x1="129.3" y1="120.5" x2="135.6" y2="120.5"/><line class="st3" x1="129.3" y1="124.2" x2="135.6" y2="124.2"/><line class="st3" x1="129.3" y1="127.8" x2="135.6" y2="127.8"/><line class="st3" x1="108" y1="132.8" x2="108" y2="141.7"/><line class="st3" x1="117.1" y1="147" x2="145.8" y2="147"/><line class="st3" x1="89.7" y1="167.4" x2="126.3" y2="167.4"/><line class="st3" x1="164.4" y1="93.6" x2="173.4" y2="93.6"/><line class="st3" x1="142.1" y1="93.6" x2="153.1" y2="93.6"/><line class="st3" x1="70.2" y1="147" x2="98.9" y2="147"/><rect x="98.9" y="141.7" class="st3" width="18.1" height="10.5"/><rect x="153.1" y="89.2" class="st3" width="11.3" height="8.8"/><rect x="84.1" y="178.9" class="st3" width="11.3" height="8.8"/><rect x="102.3" y="178.9" class="st3" width="11.3" height="8.8"/><rect x="120.6" y="178.9" class="st3" width="11.3" height="8.8"/><line class="st3" x1="51.6" y1="93.6" x2="42.6" y2="93.6"/><line class="st3" x1="73.9" y1="93.6" x2="62.9" y2="93.6"/><rect x="51.6" y="89.2" class="st3" width="11.3" height="8.8"/><line class="st3" x1="108" y1="152.2" x2="108" y2="167.4"/><line class="st3" x1="126.3" y1="167.4" x2="126.3" y2="178.9"/><line class="st3" x1="108" y1="167.4" x2="108" y2="178.9"/><line class="st3" x1="89.7" y1="167.4" x2="89.7" y2="178.9"/></g></g><path class="st3" d="M72.3 148.5c-17.9-11.7-29.8-31.9-29.8-54.9 0-36.2 29.3-65.5 65.4-65.5s65.4 29.3 65.4 65.5c0 23-11.8 43.2-29.8 54.9"/><line class="st3" x1="43.8" y1="88.4" x2="77.1" y2="88.4"/><polyline class="st3" points="53.9 88.2 53.9 79.4 65.2 79.4 65.2 88.2 "/><line class="st3" x1="59.6" y1="79.4" x2="59.6" y2="70.6"/><line class="st3" x1="172.2" y1="88.2" x2="138.9" y2="88.2"/><polyline class="st3" points="162.1 88 162.1 79.2 150.8 79.2 150.8 88 "/><line class="st3" x1="156.5" y1="79.2" x2="156.5" y2="70.5"/><polyline class="st3" points="95.3 66.8 95.3 55 120.8 55 120.8 66.8 "/><line class="st3" x1="92.2" y1="73.2" x2="95.3" y2="73.2"/><line class="st3" x1="106.5" y1="73.2" x2="109.5" y2="73.2"/><line class="st3" x1="100.9" y1="60.9" x2="104" y2="60.9"/><line class="st3" x1="112.2" y1="60.9" x2="115.2" y2="60.9"/><line class="st3" x1="120.8" y1="73.2" x2="123.8" y2="73.2"/><line class="st3" x1="81.6" y1="86.7" x2="84.6" y2="86.7"/><line class="st3" x1="118.6" y1="86.7" x2="121.6" y2="86.7"/><line class="st3" x1="94.3" y1="86.7" x2="97.4" y2="86.7"/><line class="st3" x1="106.4" y1="86.7" x2="109.5" y2="86.7"/><line class="st3" x1="129.8" y1="86.7" x2="132.9" y2="86.7"/><polyline class="st3" points="70.9 112.3 70.9 93.8 109.5 93.8 145.1 93.8 145.1 112.3 "/><polyline class="st3" points="138.9 93.8 138.9 79.5 77.1 79.5 77.1 93.8 "/><polyline class="st3" points="132.9 79.5 132.9 66.8 83.1 66.8 83.1 79.5 "/><path class="st3" d="M85.7 93.8c0 4.1-3.3 7.4-7.4 7.4s-7.4-3.3-7.4-7.4"/><path class="st3" d="M100.6 93.8c0 4.1-3.3 7.4-7.4 7.4s-7.4-3.3-7.4-7.4"/><path class="st3" d="M115.4 93.8c0 4.1-3.3 7.4-7.4 7.4s-7.4-3.3-7.4-7.4"/><path class="st3" d="M82.3 112.4c0 4.7-3.8 8.5-8.5 8.5 -4.7 0-8.5-3.8-8.5-8.5"/><path class="st3" d="M90.9 120.9c-4.7 0-8.5-3.8-8.5-8.5"/><path class="st3" d="M133.7 112.4c0 4.7-3.8 8.5-8.5 8.5"/><path class="st3" d="M150.8 112.4c0 4.7-3.8 8.5-8.5 8.5s-8.5-3.8-8.5-8.5"/><path class="st3" d="M130.3 93.8c0 4.1-3.3 7.4-7.4 7.4s-7.4-3.3-7.4-7.4"/><path class="st3" d="M145.1 93.8c0 4.1-3.3 7.4-7.4 7.4 -4.1 0-7.4-3.3-7.4-7.4"/><polyline class="st3" points="113.4 112.4 124.9 112.4 137.9 112.4 150.8 112.4 150.8 130.9 137.7 130.9 "/><polyline class="st3" points="78.5 130.9 65.2 130.9 65.2 112.4 78.2 112.4 91.2 112.4 102.8 112.4 "/><path class="st3" d="M105.4 49.5v-1.8c0 0 0.4-2 2.6-2 2.2 0 2.6 2 2.6 2v1.8"/><polyline class="st3" points="110.6 49.5 113 49.5 113 55 "/><polyline class="st3" points="103 55 103 49.5 105.4 49.5 "/><path class="st3" d="M114.2 158.8H114c-3.3 0-12.1 0-12.1 0v16.7c0 7.1 8.8 12.2 12.1 12.2h0.2V158.8z"/><polyline class="st3" points="106.7 158.8 106.7 131.4 114.2 131.4 114.2 158.8 "/><circle class="st5" cx="110.5" cy="136.2" r="1.5"/><path class="st3" d="M72.1 155.1c0-19.8 16.1-38.4 35.9-38.4s35.9 18.6 35.9 38.4"/><path class="st3" d="M100.9 117.2c0-3.9 3.2-7.1 7.1-7.1s7.1 3.2 7.1 7.1"/><polyline class="st3" points="101.9 163 86.6 163 68.7 163 64.9 155.1 91.3 155.1 106.7 155.1 "/><polyline class="st3" points="114.2 155.1 123.5 155.1 151.1 155.1 147.3 163 122.8 163 114.2 163 "/><g class="st0"><g class="st2"><line class="st3" x1="108.5" y1="172.2" x2="97.9" y2="187.8"/><line class="st3" x1="108.5" y1="172.2" x2="119.2" y2="187.8"/><line class="st3" x1="94.4" y1="187.8" x2="101.3" y2="187.8"/><line class="st3" x1="115.8" y1="187.8" x2="122.7" y2="187.8"/><path class="st3" d="M83.3 154.3c-23.9-9.7-40.8-33.2-40.8-60.6 0-36.1 29.3-65.4 65.4-65.4s65.4 29.3 65.4 65.4c0 27.4-16.8 50.8-40.7 60.6"/><line class="st3" x1="95" y1="85.3" x2="102.8" y2="85.3"/><line class="st3" x1="72" y1="122.4" x2="79.8" y2="122.4"/><line class="st3" x1="72" y1="114" x2="79.8" y2="114"/><line class="st3" x1="72" y1="105.5" x2="79.8" y2="105.5"/><line class="st3" x1="72" y1="97.1" x2="79.8" y2="97.1"/><line class="st3" x1="72" y1="130.8" x2="78.3" y2="130.8"/><line class="st3" x1="72" y1="139.2" x2="78.3" y2="139.2"/><line class="st3" x1="136.3" y1="122.4" x2="144.1" y2="122.4"/><line class="st3" x1="136.3" y1="114" x2="144.1" y2="114"/><line class="st3" x1="136.3" y1="105.5" x2="144.1" y2="105.5"/><line class="st3" x1="136.3" y1="97.1" x2="144.1" y2="97.1"/><line class="st3" x1="137.7" y1="130.8" x2="144.1" y2="130.8"/><line class="st3" x1="137.7" y1="139.2" x2="144.1" y2="139.2"/><line class="st3" x1="113.2" y1="85.3" x2="121" y2="85.3"/><line class="st3" x1="95" y1="93.7" x2="102.8" y2="93.7"/><line class="st3" x1="113.2" y1="93.7" x2="121" y2="93.7"/><line class="st3" x1="95" y1="102.1" x2="102.8" y2="102.1"/><line class="st3" x1="113.2" y1="102.1" x2="121" y2="102.1"/><line class="st3" x1="97.9" y1="131.9" x2="119.2" y2="131.9"/><line class="st3" x1="97.9" y1="138" x2="119.2" y2="138"/><polyline class="st3" points="87.5 118.2 87.5 49.8 128.6 49.8 128.6 118.2 "/><polyline class="st3" points="103.6 172.3 83.3 172.3 83.3 118.1 132.7 118.1 132.7 172.3 112 172.3 "/><rect x="89.7" y="125.1" class="st3" width="36.6" height="40.1"/><polyline class="st3" points="111.8 112.8 117.8 112.8 117.8 118.1 "/><polyline class="st3" points="98.3 118.1 98.3 112.8 104.3 112.8 "/><polyline class="st3" points="104.3 112.8 104.3 108.7 111.8 108.7 111.8 112.8 "/><polyline class="st3" points="128.6 82.4 151.8 82.4 151.8 142.3 "/><polyline class="st3" points="87.5 82.4 64.3 82.4 64.3 142.3 "/><line class="st6" x1="115.1" y1="67.7" x2="101" y2="67.7"/><line class="st6" x1="108" y1="60.7" x2="108" y2="74.8"/><line class="st4" x1="53.3" y1="57.6" x2="75.9" y2="57.6"/><line class="st4" x1="50" y1="62.9" x2="69.6" y2="62.9"/><line class="st4" x1="47.6" y1="68.2" x2="63.1" y2="68.2"/><line class="st4" x1="167.1" y1="65.5" x2="144.5" y2="65.5"/><line class="st4" x1="169.4" y1="70.8" x2="149.8" y2="70.8"/><line class="st4" x1="171" y1="76.1" x2="155.5" y2="76.1"/><path class="st5" d="M112.2 148.7c-1.2-2-4.1 0.4-4.2 0.4 -0.1 0-2.9-2.4-4.1-0.4 -1.8 3 4 7.4 4.2 7.5v0l0 0 0 0v0C108.2 156.1 114 151.7 112.2 148.7z"/><line class="st4" x1="89.7" y1="151.6" x2="93.4" y2="151.6"/><line class="st4" x1="99.8" y1="151.6" x2="102.5" y2="151.6"/><line class="st4" x1="93.4" y1="151.6" x2="94.7" y2="145.7"/><line class="st4" x1="94.7" y1="145.7" x2="98.5" y2="157.4"/><line class="st4" x1="98.5" y1="157.4" x2="99.8" y2="151.6"/><line class="st4" x1="126.3" y1="151.6" x2="122.7" y2="151.6"/><line class="st4" x1="116.3" y1="151.6" x2="113.6" y2="151.6"/><line class="st4" x1="122.7" y1="151.6" x2="121.4" y2="145.7"/><line class="st4" x1="121.4" y1="145.7" x2="117.6" y2="157.4"/><line class="st4" x1="117.6" y1="157.4" x2="116.3" y2="151.6"/><line class="st3" x1="103.6" y1="172.3" x2="112" y2="172.3"/></g></g><g class="st0"><g class="st2"><polygon class="st3" points="149.5 84.3 66.1 84.3 62.3 76.4 153.3 76.4 "/><polyline class="st3" points="149.9 84.3 149.9 90 66.1 90 66.1 84.3 "/><polyline class="st3" points="85.8 125.7 66.1 125.7 62.3 133.6 85.8 133.6 "/><polyline class="st3" points="126.6 133.6 153.3 133.6 149.5 125.7 126.6 125.7 "/><polyline class="st3" points="86.2 120 66.1 120 66.1 125.7 "/><polyline class="st3" points="149.9 125.7 149.9 120 126.6 120 "/><path class="st3" d="M133.4 76.4c0-14-11.4-25.4-25.4-25.4S82.6 62.4 82.6 76.4"/><path class="st4" d="M96.3 69.7c-1.1 2-1.8 4.3-1.8 6.7"/><path class="st4" d="M100.2 71.2c-1 1.5-1.6 3.3-1.6 5.2"/><path class="st4" d="M93.6 66.1c-2.2 2.8-3.6 6.4-3.6 10.3"/><path class="st4" d="M120.3 69.7c1.1 2 1.8 4.3 1.8 6.7"/><path class="st4" d="M116.4 71.2c1 1.5 1.6 3.3 1.6 5.2"/><path class="st4" d="M123 66.1c2.2 2.8 3.6 6.4 3.6 10.3"/><line class="st3" x1="68.7" y1="90" x2="68.7" y2="120"/><line class="st3" x1="73.3" y1="96.6" x2="64.1" y2="96.6"/><line class="st3" x1="92.9" y1="96.6" x2="83.7" y2="96.6"/><line class="st3" x1="112.4" y1="96.6" x2="103.3" y2="96.6"/><line class="st3" x1="132.3" y1="96.6" x2="123.1" y2="96.6"/><line class="st3" x1="151.9" y1="96.6" x2="142.7" y2="96.6"/><line class="st3" x1="147.3" y1="90" x2="147.3" y2="120"/><line class="st3" x1="108" y1="90" x2="108" y2="104"/><line class="st3" x1="88.3" y1="90" x2="88.3" y2="117"/><line class="st3" x1="127.7" y1="90" x2="127.7" y2="120"/><path class="st3" d="M84.3 154.4C60 145 42.7 121.3 42.7 93.6c0-36.1 29.2-65.3 65.3-65.3s65.3 29.2 65.3 65.3c0 27.7-17.3 51.4-41.6 60.9"/><line class="st3" x1="108" y1="51" x2="108" y2="39.1"/><rect x="108" y="39.1" class="st3" width="10.4" height="6.6"/><path class="st3" d="M96 135.3v-11.9c0-3.9-1.2-7-5.1-7h0c-3.9 0-5.1 3.2-5.1 7v11.9"/><path class="st3" d="M106.2 137.3v-21.6c0-3.9-1.2-7-5.1-7h0c-3.9 0-5.1 3.2-5.1 7v22.1"/><path class="st3" d="M125.1 137.3H99.6c-3.9 0-7 1.4-7 5.9v0c0 4.5 3.2 5.9 7 5.9h19.9"/><path class="st3" d="M106.2 135.3v-25.5c0-3.9 1.2-7 5.1-7h0c3.9 0 5.1 3.2 5.1 7v25.5"/><path class="st3" d="M116.4 137.3v-23.6c0-3.9 1.2-7 5.1-7h0c3.9 0 5.1 3.2 5.1 7v23.6"/><line class="st3" x1="85.8" y1="135.3" x2="85.8" y2="154.4"/><path class="st3" d="M128 154.4c2.6-6.1 1.8-17.2 1.8-17.2h-28.7"/><line class="st3" x1="147.3" y1="108.6" x2="171.6" y2="108.6"/><line class="st3" x1="44.4" y1="108.6" x2="68.7" y2="108.6"/><polygon class="st3" points="137.6 160.6 78.4 160.6 74.6 154.4 108.9 154.4 141.4 154.4 "/><line class="st3" x1="107.8" y1="160.6" x2="107.8" y2="187.6"/><line class="st3" x1="100.2" y1="187.7" x2="115.5" y2="187.7"/><polygon class="st3" points="88.3 160.5 95.8 178.3 80.9 178.3 "/><polygon class="st3" points="127.4 160.7 134.9 178.5 119.9 178.5 "/><line class="st4" x1="82.8" y1="173.7" x2="93.8" y2="173.7"/><line class="st4" x1="121.9" y1="173.8" x2="132.9" y2="173.8"/></g></g><g class="st0"><g class="st2"><line class="st4" x1="169.4" y1="71.3" x2="148.5" y2="71.3"/><line class="st4" x1="171" y1="76.6" x2="155" y2="76.6"/><line class="st4" x1="172.1" y1="81.9" x2="161.8" y2="81.9"/><line class="st4" x1="60" y1="49.2" x2="77.6" y2="49.2"/><line class="st4" x1="55.6" y1="54.4" x2="71.1" y2="54.4"/><line class="st4" x1="52" y1="59.7" x2="64.3" y2="59.7"/><path class="st3" d="M67.6 145.1c-15.2-12-25-30.6-25-51.5 0-36.1 29.3-65.4 65.4-65.4s65.4 29.3 65.4 65.4c0 20.9-9.8 39.5-25 51.5"/><polyline class="st3" points="98.2 124.1 79.1 124.1 79.1 89.7 155.5 89.7 155.5 124.1 "/><line class="st3" x1="120.9" y1="124.1" x2="118.1" y2="124.1"/><line class="st3" x1="165.9" y1="124.1" x2="135.6" y2="124.1"/><line class="st3" x1="135.6" y1="76.6" x2="155.5" y2="89.7"/><polyline class="st3" points="79.1 89.7 106.9 71.4 127.7 71.4 "/><rect x="127.8" y="64.9" class="st3" width="7.8" height="14.8"/><polyline class="st3" points="108 71.4 108 57.8 115.8 57.8 115.8 71.4 "/><polyline class="st3" points="89.9 82.6 89.9 48.8 97.7 48.8 97.7 77.4 "/><rect x="86.6" y="42" class="st3" width="13.6" height="6.8"/><rect x="105.1" y="51.1" class="st3" width="13.6" height="6.8"/><rect x="124.9" y="58.1" class="st3" width="13.6" height="6.8"/><line class="st3" x1="89.9" y1="56.8" x2="97.7" y2="56.8"/><line class="st3" x1="89.9" y1="61.6" x2="97.7" y2="61.6"/><path class="st3" d="M63.6 124.1V75.9c0-5.8 4.7-10.5 10.5-10.5h0c5.8 0 10.5 4.7 10.5 10.5V86"/><line class="st3" x1="79.3" y1="124.1" x2="50.1" y2="124.1"/><line class="st3" x1="63.6" y1="87.6" x2="60.5" y2="84.9"/><line class="st3" x1="60.5" y1="84.9" x2="84.7" y2="84.9"/><line class="st3" x1="63.6" y1="98.3" x2="60.5" y2="95.6"/><line class="st3" x1="60.5" y1="95.6" x2="79.1" y2="95.6"/><line class="st3" x1="63.6" y1="109.3" x2="60.5" y2="106.7"/><line class="st3" x1="60.5" y1="106.7" x2="79.1" y2="106.7"/><polyline class="st3" points="84.7 124.1 84.7 94.7 95 94.7 95 124.1 "/><line class="st3" x1="84.7" y1="102.1" x2="95" y2="102.1"/><polyline class="st3" points="139.6 124.1 139.6 94.7 149.9 94.7 149.9 124.1 "/><line class="st3" x1="139.6" y1="102.1" x2="149.9" y2="102.1"/><polyline class="st3" points="121 111.5 121 94.7 131.3 94.7 131.3 124.1 "/><line class="st3" x1="121" y1="102.1" x2="131.3" y2="102.1"/><line class="st3" x1="108" y1="145.1" x2="87.6" y2="145.1"/><polyline class="st3" points="111.7 155.8 152.2 155.8 148.4 145.1 108 145.1 "/><polyline class="st3" points="87.6 145.1 67.6 145.1 63.8 155.8 104.5 155.8 "/><line class="st3" x1="121.5" y1="145.1" x2="117.7" y2="121.9"/><line class="st3" x1="101.1" y1="106.8" x2="94.7" y2="145.1"/><circle class="st3" cx="108.1" cy="106.7" r="7.1"/><circle class="st3" cx="108.1" cy="106.7" r="3.2"/><polyline class="st3" points="137.8 126.1 133.8 122.4 125.6 131.2 129.6 134.9 "/><line class="st3" x1="132" y1="132.4" x2="135.4" y2="128.7"/><polyline class="st3" points="129.6 134.9 134.9 139.9 137.3 137.3 132 132.4 "/><polyline class="st3" points="135.4 128.7 140.7 133.6 143.1 131.1 137.8 126.1 "/><polyline class="st3" points="103.3 111.8 127.7 128.9 131.6 124.7 112.9 101.5 "/><rect x="79.1" y="131.9" class="st3" width="8.4" height="5.1"/><line class="st3" x1="98.1" y1="85.1" x2="104.5" y2="85.1"/><line class="st3" x1="113.6" y1="85.1" x2="120" y2="85.1"/><line class="st3" x1="130.5" y1="85.1" x2="136.8" y2="85.1"/><line class="st3" x1="121.8" y1="79.1" x2="118.1" y2="79.1"/><line class="st3" x1="108.2" y1="79.1" x2="104.5" y2="79.1"/><line class="st3" x1="104.5" y1="178.5" x2="111.5" y2="178.5"/><polyline class="st3" points="117.3 178.5 123.5 178.5 123.5 166.7 92.5 166.7 92.5 178.5 98.7 178.5 "/><polyline class="st3" points="104.5 178.5 104.5 187.8 98.7 187.8 98.7 178.5 "/><polyline class="st3" points="117.3 178.5 117.3 187.8 111.5 187.8 111.5 178.5 "/><line class="st3" x1="104.6" y1="166.7" x2="104.6" y2="145.1"/><line class="st3" x1="111.7" y1="145.1" x2="111.7" y2="166.7"/></g></g><g class="st0"><g class="st2"><line class="st4" x1="42.7" y1="87.4" x2="66.9" y2="87.4"/><line class="st4" x1="42.5" y1="92.7" x2="61.1" y2="92.7"/><line class="st4" x1="42.6" y1="98" x2="54.2" y2="98"/><line class="st4" x1="173.3" y1="87.4" x2="147.5" y2="87.4"/><line class="st4" x1="173.5" y1="92.7" x2="152.6" y2="92.7"/><line class="st4" x1="173.3" y1="98" x2="159.5" y2="98"/><path class="st3" d="M103.2 159c-34-2.4-60.8-30.8-60.8-65.4 0-36.2 29.3-65.5 65.5-65.5s65.5 29.3 65.5 65.5c0 34.6-26.8 62.9-60.8 65.4"/><polyline class="st3" points="78.4 152.1 78.4 121.7 108.2 127.3 "/><polyline class="st3" points="138 151.9 138 121.7 108.2 127.3 "/><polyline class="st3" points="112.8 126.5 112.8 187.9 108 183.6 103.2 187.9 103.2 126.4 "/><polyline class="st3" points="131.1 155 131.1 176 126.3 171.7 121.5 176 121.5 157.8 "/><polyline class="st3" points="84.9 155 84.9 176 89.7 171.7 94.5 176 94.5 157.8 "/><line class="st3" x1="95.6" y1="134.7" x2="86" y2="132.9"/><line class="st3" x1="95.6" y1="140.6" x2="86" y2="138.8"/><line class="st3" x1="95.6" y1="146.4" x2="86" y2="144.6"/><line class="st3" x1="121.4" y1="134.7" x2="131" y2="132.9"/><line class="st3" x1="121.4" y1="140.6" x2="131" y2="138.8"/><line class="st3" x1="121.4" y1="146.4" x2="131" y2="144.6"/><line class="st3" x1="94.8" y1="99.8" x2="94.8" y2="46.4"/><line class="st3" x1="121.2" y1="46.4" x2="121.2" y2="99.8"/><line class="st3" x1="94.8" y1="49.6" x2="121.2" y2="49.6"/><polyline class="st3" points="147.5 68.1 147.5 129.3 138 129.3 "/><line class="st3" x1="121.2" y1="70.5" x2="147.5" y2="70.5"/><polyline class="st3" points="68.4 68.1 68.4 129.3 78.4 129.3 "/><line class="st3" x1="94.8" y1="70.5" x2="68.4" y2="70.5"/><line class="st3" x1="68.4" y1="74.3" x2="94.8" y2="74.3"/><line class="st3" x1="121.2" y1="74.3" x2="147.5" y2="74.3"/><line class="st3" x1="94.8" y1="54.2" x2="121.2" y2="54.2"/><line class="st3" x1="94.8" y1="84.7" x2="121.2" y2="84.7"/><line class="st3" x1="94.8" y1="79.5" x2="121.2" y2="79.5"/><path class="st3" d="M75.5 93.5v-6.7c0-3.3 2.7-6.1 6.1-6.1h0c3.3 0 6.1 2.7 6.1 6.1v6.7H75.5z"/><path class="st3" d="M101.9 99.8v-1c0-3.3 2.7-6.1 6.1-6.1h0c3.3 0 6.1 2.7 6.1 6.1v1"/><path class="st3" d="M128.3 93.5v-6.7c0-3.3 2.7-6.1 6.1-6.1h0c3.3 0 6.1 2.7 6.1 6.1v6.7H128.3z"/><line class="st3" x1="68.4" y1="63.3" x2="68.4" y2="62.2"/><line class="st3" x1="94.8" y1="41.9" x2="94.8" y2="40.7"/><line class="st3" x1="121.2" y1="41.9" x2="121.2" y2="40.7"/><line class="st3" x1="147.5" y1="63.9" x2="147.5" y2="62.7"/><line class="st3" x1="99.5" y1="65.8" x2="99.5" y2="79.5"/><line class="st3" x1="105" y1="65.8" x2="105" y2="79.5"/><line class="st3" x1="116.4" y1="65.8" x2="116.4" y2="79.5"/><line class="st3" x1="111.1" y1="65.8" x2="111.1" y2="79.5"/><polyline class="st3" points="75.5 70.5 81.6 59.9 87.7 70.5 "/><polyline class="st3" points="128.3 70.5 134.3 59.9 140.4 70.5 "/><path class="st3" d="M92.5 105.8c0 3.3-2.7 6-6 6 -3.3 0-6-2.7-6-6 0-3.3 2.7-6 6-6"/><path class="st4" d="M89 105.8c0 1.4-1.2 2.6-2.6 2.6s-2.6-1.2-2.6-2.6c0-1.4 1.2-2.6 2.6-2.6"/><line class="st3" x1="86.5" y1="99.8" x2="108" y2="99.8"/><path class="st3" d="M123.4 105.8c0 3.3 2.7 6 6 6 3.3 0 6-2.7 6-6 0-3.3-2.7-6-6-6"/><path class="st4" d="M126.8 105.8c0 1.4 1.2 2.6 2.6 2.6s2.6-1.2 2.6-2.6c0-1.4-1.2-2.6-2.6-2.6"/><line class="st3" x1="129.5" y1="99.8" x2="108" y2="99.8"/><line class="st3" x1="92.5" y1="105.8" x2="92.5" y2="124.3"/><line class="st3" x1="103.1" y1="109.9" x2="103.1" y2="126.3"/><line class="st3" x1="113.3" y1="109.9" x2="113.3" y2="126.9"/><line class="st3" x1="123.4" y1="105.8" x2="123.4" y2="124.5"/></g></g><g class="st0"><g class="st2"><line class="st4" x1="150.4" y1="43.8" x2="126.2" y2="43.8"/><line class="st4" x1="155.8" y1="49.1" x2="133.5" y2="49.1"/><line class="st4" x1="160.2" y1="54.4" x2="139.2" y2="54.4"/><line class="st4" x1="50.4" y1="62.9" x2="65.6" y2="62.9"/><line class="st4" x1="47.8" y1="68.2" x2="59.7" y2="68.2"/><line class="st4" x1="45.9" y1="73.5" x2="53.3" y2="73.5"/><path class="st3" d="M95.4 157.7c-30.1-5.9-52.8-32.3-52.8-64.1 0-36.1 29.2-65.3 65.3-65.3s65.3 29.2 65.3 65.3c0 31.3-22 57.5-51.5 63.8"/><polyline class="st3" points="72.7 125.7 72.7 55.5 90.5 55.5 90.5 125.7 51.1 125.7 "/><line class="st3" x1="93" y1="125.7" x2="90.5" y2="125.7"/><polyline class="st3" points="90.5 73.7 108.3 62.9 108.3 73.7 108.3 92.4 "/><polyline class="st3" points="108.3 73.7 126 62.9 126 73.7 126 125.7 123.6 125.7 "/><line class="st3" x1="164.9" y1="125.7" x2="126" y2="125.7"/><polyline class="st3" points="126 73.7 143.8 62.9 143.8 125.7 "/><line class="st3" x1="72.7" y1="63.7" x2="90.5" y2="63.7"/><rect x="95.2" y="79.7" class="st3" width="8.4" height="8.4"/><polyline class="st3" points="99.3 103.8 95.2 103.8 95.2 95.3 99.3 95.3 "/><polyline class="st3" points="117.3 95.3 121.4 95.3 121.4 103.8 117.3 103.8 "/><polyline class="st3" points="97.3 119.4 95.2 119.4 95.2 111 99.3 111 "/><polyline class="st3" points="117.3 111 121.4 111 121.4 119.4 119.3 119.4 "/><rect x="112.9" y="79.7" class="st3" width="8.4" height="8.4"/><rect x="130.7" y="79.7" class="st3" width="8.4" height="8.4"/><rect x="130.7" y="95.3" class="st3" width="8.4" height="8.4"/><rect x="130.7" y="111" class="st3" width="8.4" height="8.4"/><line class="st3" x1="79.1" y1="152" x2="99.2" y2="116.6"/><line class="st3" x1="117.3" y1="116.6" x2="137.4" y2="152"/><polyline class="st3" points="99.3 116.6 99.3 92.4 117.3 92.4 117.3 116.6 "/><line class="st3" x1="117.3" y1="116.6" x2="108.3" y2="116.6"/><line class="st3" x1="117.3" y1="108.9" x2="108.3" y2="108.9"/><line class="st3" x1="117.3" y1="101.2" x2="108.3" y2="101.2"/><line class="st4" x1="77.2" y1="82.9" x2="72.7" y2="82.9"/><line class="st4" x1="79.3" y1="79.1" x2="72.7" y2="79.1"/><line class="st4" x1="81.7" y1="75.2" x2="72.7" y2="75.2"/><line class="st4" x1="77.2" y1="94.5" x2="72.7" y2="94.4"/><line class="st4" x1="79.3" y1="90.6" x2="72.7" y2="90.6"/><line class="st4" x1="81.7" y1="86.8" x2="72.7" y2="86.8"/><line class="st4" x1="85.8" y1="116.6" x2="85.8" y2="107.6"/><line class="st4" x1="82.7" y1="116.6" x2="82.7" y2="111"/><circle class="st3" cx="98.7" cy="135.8" r="4.7"/><circle class="st3" cx="121.4" cy="144.8" r="4.6"/><circle class="st3" cx="111.7" cy="126.4" r="3"/><rect x="56.9" y="116.6" class="st3" width="9.1" height="9.1"/><rect x="150.5" y="116.6" class="st3" width="9.1" height="9.1"/><line class="st4" x1="61.5" y1="116.6" x2="61.5" y2="108"/><line class="st4" x1="155.1" y1="116.6" x2="155.1" y2="108"/><path class="st4" d="M60.9 106.6c0.8 0.8 0.8 2.1 0 3s-2.1 0.8-3 0c-0.8-0.8-1.1-4-1.1-4S60.1 105.8 60.9 106.6z"/><path class="st4" d="M65.1 109.7c-0.8 0.8-2.1 0.8-3 0 -0.8-0.8-0.8-2.1 0-3 0.8-0.8 4-1.1 4-1.1S65.9 108.9 65.1 109.7z"/><path class="st4" d="M154.5 106.6c0.8 0.8 0.8 2.1 0 3s-2.1 0.8-3 0 -1.1-4-1.1-4S153.7 105.8 154.5 106.6z"/><path class="st4" d="M158.7 109.7c-0.8 0.8-2.1 0.8-3 0s-0.8-2.1 0-3c0.8-0.8 4-1.1 4-1.1S159.5 108.9 158.7 109.7z"/><polygon class="st3" points="95.5 157.7 108.7 150.1 121.9 157.7 121.9 173 108.7 180.6 95.5 173 "/><polygon class="st3" points="102.1 161.5 108.7 157.7 115.3 161.5 115.3 169.1 108.7 173 102.1 169.1 "/><line class="st3" x1="121.9" y1="173" x2="128.3" y2="175.8"/><line class="st3" x1="108.7" y1="180.6" x2="108.7" y2="187.7"/><line class="st3" x1="95.5" y1="173" x2="89.2" y2="177.6"/><line class="st3" x1="108.7" y1="150.1" x2="108.7" y2="141.5"/></g></g><g class="st0"><g class="st2"><path class="st3" d="M94.6 128.4v-24.3c0-5.4 4.4-9.8 9.8-9.8h9.5c5.4 0 9.8 4.4 9.8 9.8v24.3"/><line class="st3" x1="94.6" y1="128.4" x2="123.6" y2="128.4"/><circle class="st3" cx="109.1" cy="111.4" r="3"/><line class="st4" x1="94.6" y1="105.4" x2="103.1" y2="105.4"/><line class="st4" x1="94.6" y1="112.2" x2="99.2" y2="112.2"/><line class="st4" x1="99.1" y1="128.4" x2="99.1" y2="123.8"/><line class="st4" x1="119.5" y1="128.4" x2="119.5" y2="123.8"/><line class="st4" x1="109.1" y1="128.4" x2="109.1" y2="123.8"/><line class="st4" x1="114.7" y1="128.4" x2="114.7" y2="123.8"/><line class="st4" x1="104.3" y1="128.4" x2="104.3" y2="123.8"/><line class="st4" x1="99.1" y1="100.7" x2="99.1" y2="96.1"/><line class="st4" x1="119.5" y1="100.7" x2="119.5" y2="96.1"/><line class="st4" x1="109.1" y1="99" x2="109.1" y2="94.3"/><line class="st4" x1="114.7" y1="99.1" x2="114.7" y2="94.4"/><line class="st4" x1="104.3" y1="99" x2="104.3" y2="94.3"/><line class="st4" x1="94.6" y1="108.8" x2="101.4" y2="108.8"/><line class="st4" x1="94.6" y1="115.6" x2="101.4" y2="115.6"/><line class="st4" x1="94.6" y1="119" x2="103.1" y2="119"/><line class="st4" x1="123.6" y1="105.4" x2="115" y2="105.4"/><line class="st4" x1="123.6" y1="112.2" x2="118.9" y2="112.2"/><line class="st4" x1="123.6" y1="108.8" x2="116.8" y2="108.8"/><line class="st4" x1="123.6" y1="115.6" x2="116.8" y2="115.6"/><line class="st4" x1="123.6" y1="119" x2="115" y2="119"/><line class="st3" x1="107.1" y1="136.9" x2="107.1" y2="128.4"/><line class="st3" x1="111.5" y1="128.4" x2="111.5" y2="136.9"/><polyline class="st3" points="115.3 142.7 115.3 136.9 102.9 136.9 102.9 142.7 "/><path class="st3" d="M76.8 151.1c-20.4-11.1-34.2-32.7-34.2-57.5 0-36.1 29.3-65.4 65.4-65.4s65.4 29.3 65.4 65.4c0 24-12.9 44.9-32.1 56.3"/><rect x="68.4" y="53.1" class="st3" width="79.2" height="35.1"/><rect x="68.4" y="53.1" class="st3" width="79.2" height="35.1"/><path class="st5" d="M142.5 64.8v-1.6c0-0.5 0.4-0.9 0.9-0.9 0.5 0 0.9 0.4 0.9 0.9v1.6c0 0.5-0.4 0.9-0.9 0.9C142.9 65.7 142.5 65.3 142.5 64.8z"/><path class="st5" d="M142.5 71.4v-1.6c0-0.5 0.4-0.9 0.9-0.9 0.5 0 0.9 0.4 0.9 0.9v1.6c0 0.5-0.4 0.9-0.9 0.9C142.9 72.3 142.5 71.9 142.5 71.4z"/><path class="st5" d="M142.5 78v-1.6c0-0.5 0.4-0.9 0.9-0.9 0.5 0 0.9 0.4 0.9 0.9V78c0 0.5-0.4 0.9-0.9 0.9C142.9 78.9 142.5 78.5 142.5 78z"/><path class="st5" d="M136.8 82h1.6c0.5 0 0.9 0.4 0.9 0.9 0 0.5-0.4 0.9-0.9 0.9h-1.6c-0.5 0-0.9-0.4-0.9-0.9C135.9 82.4 136.3 82 136.8 82z"/><path class="st5" d="M130.2 82h1.6c0.5 0 0.9 0.4 0.9 0.9 0 0.5-0.4 0.9-0.9 0.9h-1.6c-0.5 0-0.9-0.4-0.9-0.9C129.3 82.4 129.7 82 130.2 82z"/><path class="st5" d="M123.7 82h1.6c0.5 0 0.9 0.4 0.9 0.9 0 0.5-0.4 0.9-0.9 0.9h-1.6c-0.5 0-0.9-0.4-0.9-0.9C122.7 82.4 123.1 82 123.7 82z"/><path class="st5" d="M117.1 82h1.6c0.5 0 0.9 0.4 0.9 0.9 0 0.5-0.4 0.9-0.9 0.9h-1.6c-0.5 0-0.9-0.4-0.9-0.9C116.1 82.4 116.6 82 117.1 82z"/><path class="st5" d="M110.5 82h1.6c0.5 0 0.9 0.4 0.9 0.9 0 0.5-0.4 0.9-0.9 0.9h-1.6c-0.5 0-0.9-0.4-0.9-0.9C109.6 82.4 110 82 110.5 82z"/><path class="st5" d="M103.9 82h1.6c0.5 0 0.9 0.4 0.9 0.9 0 0.5-0.4 0.9-0.9 0.9h-1.6c-0.5 0-0.9-0.4-0.9-0.9C103 82.4 103.4 82 103.9 82z"/><path class="st5" d="M97.3 82h1.6c0.5 0 0.9 0.4 0.9 0.9 0 0.5-0.4 0.9-0.9 0.9h-1.6c-0.5 0-0.9-0.4-0.9-0.9C96.4 82.4 96.8 82 97.3 82z"/><path class="st5" d="M90.7 82h1.6c0.5 0 0.9 0.4 0.9 0.9 0 0.5-0.4 0.9-0.9 0.9h-1.6c-0.5 0-0.9-0.4-0.9-0.9C89.8 82.4 90.2 82 90.7 82z"/><path class="st5" d="M84.1 82h1.6c0.5 0 0.9 0.4 0.9 0.9 0 0.5-0.4 0.9-0.9 0.9h-1.6c-0.5 0-0.9-0.4-0.9-0.9C83.2 82.4 83.6 82 84.1 82z"/><path class="st5" d="M77.6 82h1.6c0.5 0 0.9 0.4 0.9 0.9 0 0.5-0.4 0.9-0.9 0.9h-1.6c-0.5 0-0.9-0.4-0.9-0.9C76.6 82.4 77 82 77.6 82z"/><path class="st5" d="M73.5 76.4V78c0 0.5-0.4 0.9-0.9 0.9 -0.5 0-0.9-0.4-0.9-0.9v-1.6c0-0.5 0.4-0.9 0.9-0.9C73.1 75.4 73.5 75.9 73.5 76.4z"/><path class="st5" d="M73.5 69.8v1.6c0 0.5-0.4 0.9-0.9 0.9 -0.5 0-0.9-0.4-0.9-0.9v-1.6c0-0.5 0.4-0.9 0.9-0.9C73.1 68.9 73.5 69.3 73.5 69.8z"/><path class="st5" d="M73.5 63.2v1.6c0 0.5-0.4 0.9-0.9 0.9 -0.5 0-0.9-0.4-0.9-0.9v-1.6c0-0.5 0.4-0.9 0.9-0.9C73.1 62.3 73.5 62.7 73.5 63.2z"/><path class="st5" d="M79.2 59.2h-1.6c-0.5 0-0.9-0.4-0.9-0.9 0-0.5 0.4-0.9 0.9-0.9h1.6c0.5 0 0.9 0.4 0.9 0.9C80.1 58.7 79.7 59.2 79.2 59.2z"/><path class="st5" d="M85.8 59.2h-1.6c-0.5 0-0.9-0.4-0.9-0.9 0-0.5 0.4-0.9 0.9-0.9h1.6c0.5 0 0.9 0.4 0.9 0.9C86.7 58.7 86.3 59.2 85.8 59.2z"/><path class="st5" d="M92.3 59.2h-1.6c-0.5 0-0.9-0.4-0.9-0.9 0-0.5 0.4-0.9 0.9-0.9h1.6c0.5 0 0.9 0.4 0.9 0.9C93.3 58.7 92.9 59.2 92.3 59.2z"/><path class="st5" d="M98.9 59.2h-1.6c-0.5 0-0.9-0.4-0.9-0.9 0-0.5 0.4-0.9 0.9-0.9h1.6c0.5 0 0.9 0.4 0.9 0.9C99.9 58.7 99.4 59.2 98.9 59.2z"/><path class="st5" d="M105.5 59.2h-1.6c-0.5 0-0.9-0.4-0.9-0.9 0-0.5 0.4-0.9 0.9-0.9h1.6c0.5 0 0.9 0.4 0.9 0.9C106.4 58.7 106 59.2 105.5 59.2z"/><path class="st5" d="M112.1 59.2h-1.6c-0.5 0-0.9-0.4-0.9-0.9 0-0.5 0.4-0.9 0.9-0.9h1.6c0.5 0 0.9 0.4 0.9 0.9C113 58.7 112.6 59.2 112.1 59.2z"/><path class="st5" d="M118.7 59.2h-1.6c-0.5 0-0.9-0.4-0.9-0.9 0-0.5 0.4-0.9 0.9-0.9h1.6c0.5 0 0.9 0.4 0.9 0.9C119.6 58.7 119.2 59.2 118.7 59.2z"/><path class="st5" d="M125.3 59.2h-1.6c-0.5 0-0.9-0.4-0.9-0.9 0-0.5 0.4-0.9 0.9-0.9h1.6c0.5 0 0.9 0.4 0.9 0.9C126.2 58.7 125.8 59.2 125.3 59.2z"/><path class="st5" d="M131.9 59.2h-1.6c-0.5 0-0.9-0.4-0.9-0.9 0-0.5 0.4-0.9 0.9-0.9h1.6c0.5 0 0.9 0.4 0.9 0.9C132.8 58.7 132.4 59.2 131.9 59.2z"/><path class="st5" d="M138.4 59.2h-1.6c-0.5 0-0.9-0.4-0.9-0.9 0-0.5 0.4-0.9 0.9-0.9h1.6c0.5 0 0.9 0.4 0.9 0.9C139.4 58.7 139 59.2 138.4 59.2z"/><polygon class="st5" points="142.6 82 144.2 82 144.3 82 144.4 82 144.5 82.1 144.6 82.1 144.7 82.1 144.7 82.2 144.8 82.2 144.9 82.3 144.9 82.4 145 82.4 145 82.5 145.1 82.6 145.1 82.7 145.1 82.8 145.1 82.9 145.1 83 145.1 83 145.1 83.1 145.1 83.2 145.1 83.3 145 83.4 145 83.5 144.9 83.5 144.9 83.6 144.8 83.7 144.7 83.7 144.7 83.8 144.6 83.8 144.5 83.8 144.4 83.9 144.3 83.9 144.2 83.9 142.6 83.9 142.5 83.9 142.4 83.9 142.3 83.8 142.2 83.8 142.2 83.8 142.1 83.7 142 83.7 141.9 83.6 141.9 83.5 141.8 83.5 141.8 83.4 141.8 83.3 141.7 83.2 141.7 83.1 141.7 83 141.7 83 141.7 82.9 141.7 82.8 141.7 82.7 141.8 82.6 141.8 82.5 141.8 82.4 141.9 82.4 141.9 82.3 142 82.2 142.1 82.2 142.2 82.1 142.2 82.1 142.3 82.1 142.4 82 142.5 82 "/><polygon class="st5" points="73.5 82.1 73.5 83.8 73.5 83.9 73.5 83.9 73.5 84 73.4 84.1 73.4 84.2 73.4 84.3 73.3 84.3 73.2 84.4 73.2 84.5 73.1 84.5 73 84.6 72.9 84.6 72.9 84.6 72.8 84.7 72.7 84.7 72.6 84.7 72.5 84.7 72.4 84.7 72.3 84.6 72.2 84.6 72.1 84.6 72.1 84.5 72 84.5 71.9 84.4 71.9 84.3 71.8 84.3 71.8 84.2 71.7 84.1 71.7 84 71.7 83.9 71.7 83.9 71.7 83.8 71.7 82.1 71.7 82 71.7 82 71.7 81.9 71.7 81.8 71.8 81.7 71.8 81.6 71.9 81.6 71.9 81.5 72 81.4 72.1 81.4 72.1 81.3 72.2 81.3 72.3 81.3 72.4 81.2 72.5 81.2 72.6 81.2 72.7 81.2 72.8 81.2 72.9 81.3 72.9 81.3 73 81.3 73.1 81.4 73.2 81.4 73.2 81.5 73.3 81.6 73.4 81.6 73.4 81.7 73.4 81.8 73.5 81.9 73.5 82 73.5 82 "/><polygon class="st5" points="73.4 59.2 71.8 59.2 71.7 59.1 71.6 59.1 71.5 59.1 71.4 59.1 71.3 59 71.3 59 71.2 58.9 71.1 58.9 71.1 58.8 71 58.7 71 58.7 70.9 58.6 70.9 58.5 70.9 58.4 70.9 58.3 70.9 58.2 70.9 58.1 70.9 58 70.9 58 70.9 57.9 71 57.8 71 57.7 71.1 57.6 71.1 57.6 71.2 57.5 71.3 57.5 71.3 57.4 71.4 57.4 71.5 57.3 71.6 57.3 71.7 57.3 71.8 57.3 73.4 57.3 73.5 57.3 73.6 57.3 73.7 57.3 73.8 57.4 73.8 57.4 73.9 57.5 74 57.5 74.1 57.6 74.1 57.6 74.2 57.7 74.2 57.8 74.2 57.9 74.3 58 74.3 58 74.3 58.1 74.3 58.2 74.3 58.3 74.3 58.4 74.3 58.5 74.2 58.6 74.2 58.7 74.2 58.7 74.1 58.8 74.1 58.9 74 58.9 73.9 59 73.8 59 73.8 59.1 73.7 59.1 73.6 59.1 73.5 59.1 "/><polygon class="st5" points="142.5 59 142.5 57.4 142.5 57.3 142.5 57.2 142.5 57.1 142.6 57.1 142.6 57 142.6 56.9 142.7 56.8 142.8 56.8 142.8 56.7 142.9 56.7 143 56.6 143.1 56.6 143.1 56.5 143.2 56.5 143.3 56.5 143.4 56.5 143.5 56.5 143.6 56.5 143.7 56.5 143.8 56.6 143.9 56.6 143.9 56.7 144 56.7 144.1 56.8 144.1 56.8 144.2 56.9 144.2 57 144.3 57.1 144.3 57.1 144.3 57.2 144.3 57.3 144.3 57.4 144.3 59 144.3 59.1 144.3 59.2 144.3 59.3 144.3 59.4 144.2 59.5 144.2 59.6 144.1 59.6 144.1 59.7 144 59.8 143.9 59.8 143.9 59.8 143.8 59.9 143.7 59.9 143.6 59.9 143.5 60 143.4 60 143.3 60 143.2 59.9 143.1 59.9 143.1 59.9 143 59.8 142.9 59.8 142.8 59.8 142.8 59.7 142.7 59.6 142.6 59.6 142.6 59.5 142.6 59.4 142.5 59.3 142.5 59.2 142.5 59.1 "/><path class="st3" d="M97.2 44.3V40c0 0 1.6-4.7 10.8-4.7 9.3 0 10.8 4.7 10.8 4.7v4.3"/><polyline class="st3" points="118.8 44.3 129 44.3 129 53.1 "/><polyline class="st3" points="87 53.1 87 44.3 97.2 44.3 "/><polygon class="st4" points="108 39.2 109.4 43.3 113.8 43.3 110.2 45.9 111.6 50.1 108 47.5 104.4 50.1 105.8 45.9 102.2 43.3 106.6 43.3 "/><line class="st4" x1="80.7" y1="97.6" x2="80.7" y2="123.4"/><line class="st4" x1="85" y1="101.7" x2="85" y2="123.4"/><line class="st4" x1="137.4" y1="97.6" x2="137.4" y2="123.4"/><line class="st4" x1="133.1" y1="101.7" x2="133.1" y2="123.4"/><line class="st4" x1="118.8" y1="48.7" x2="126" y2="48.7"/><line class="st4" x1="90.5" y1="48.7" x2="97.7" y2="48.7"/><line class="st3" x1="74.7" y1="123.4" x2="74.7" y2="88.1"/><line class="st3" x1="142.5" y1="88.1" x2="142.5" y2="123.4"/><line class="st3" x1="94.6" y1="123.4" x2="49.7" y2="123.4"/><line class="st3" x1="166.3" y1="123.4" x2="123.6" y2="123.4"/><polyline class="st3" points="106.5 176.2 76.8 176.2 76.8 142.7 141.3 142.7 141.3 176.2 110.8 176.2 "/><polyline class="st3" points="76.8 176.2 86.3 153.6 95.7 176.2 "/><polyline class="st3" points="117.7 176.2 123.6 165.8 129.6 176.2 "/><polyline class="st3" points="129.3 176.2 135.2 165.8 141.2 176.2 "/><circle class="st3" cx="125.6" cy="153.6" r="6"/><polygon class="st5" points="93.1 146.3 93.7 148 95.5 148 94 149.1 94.6 150.9 93.1 149.8 91.6 150.9 92.2 149.1 90.7 148 92.5 148 "/><polygon class="st5" points="98 155.1 98.6 156.9 100.4 156.9 98.9 157.9 99.5 159.7 98 158.6 96.5 159.7 97.1 157.9 95.6 156.9 97.4 156.9 "/><polygon class="st5" points="102.9 146.2 103.5 148 105.4 148 103.9 149 104.4 150.8 102.9 149.7 101.4 150.8 102 149 100.5 148 102.4 148 "/><path class="st7" d="M102.4 63.2v9.1c0 3.2-4.1 5.7-7.3 5.7h0c-3.2 0-7.3-2.6-7.3-5.7v-9.1l7.3 1.5L102.4 63.2z"/><path class="st8" d="M90.3 69.5c0-0.9 0.7-1.5 1.5-1.5 0.9 0 1.5 0.7 1.5 1.5"/><path class="st8" d="M92.4 72.8c0 0.9 1.2 1.7 2.7 1.7s2.7-0.8 2.7-1.7"/><path class="st8" d="M96.8 69.5c0-0.9 0.7-1.5 1.5-1.5s1.5 0.7 1.5 1.5"/><path class="st7" d="M129.7 63.2v9.1c0 3.2-4.1 5.7-7.3 5.7h0c-3.2 0-7.3-2.6-7.3-5.7v-9.1l7.3 1.5L129.7 63.2z"/><path class="st8" d="M117.6 68c0 0.9 0.7 1.5 1.5 1.5s1.5-0.7 1.5-1.5"/><path class="st8" d="M119.7 74.5c0-0.9 1.2-1.7 2.7-1.7s2.7 0.8 2.7 1.7"/><path class="st8" d="M124.1 68c0 0.9 0.7 1.5 1.5 1.5s1.5-0.7 1.5-1.5"/><path class="st3" d="M104.1 161.2c0-2.5 4.5-9.1 4.5-9.1s4.5 6.6 4.5 9.1c0 2.5-2 4.5-4.5 4.5S104.1 163.7 104.1 161.2z"/><polyline class="st3" points="111.6 164.5 109.9 187.8 107.3 187.8 105.6 164.5 "/><line class="st3" x1="111.2" y1="170.5" x2="106.1" y2="170.5"/><circle class="st3" cx="55.9" cy="111.5" r="2.4"/><line class="st3" x1="58.3" y1="111.5" x2="58.3" y2="99"/><circle class="st3" cx="64.3" cy="114.6" r="2.4"/><line class="st3" x1="66.8" y1="114.6" x2="66.8" y2="102.1"/><line class="st3" x1="58.3" y1="99" x2="66.8" y2="102.1"/><line class="st3" x1="58.3" y1="103.9" x2="66.8" y2="107"/><circle class="st3" cx="151.2" cy="111.5" r="2.4"/><line class="st3" x1="153.7" y1="111.5" x2="153.7" y2="99"/><circle class="st3" cx="159.7" cy="114.6" r="2.4"/><line class="st3" x1="162.1" y1="114.6" x2="162.1" y2="102.1"/><line class="st3" x1="153.7" y1="99" x2="162.1" y2="102.1"/><line class="st3" x1="153.7" y1="103.9" x2="162.1" y2="107"/></g></g></svg>